{
    "artists": {
        "href": "https://api.spotify.com/v1/search?query=coldplay&type=artist&offset=0&limit=1",
        "items": [
            {
                "external_urls": {
                    "spotify": "https://open.spotify.com/artist/4gzpq5DPGxSnKTe4SA8HAU"
                },
                "followers": {
                    "href": null,
                    "total": 28591222
                },
                "genres": [
                    "permanent wave",
                    "pop"
                ],
                "href": "https://api.spotify.com/v1/artists/4gzpq5DPGxSnKTe4SA8HAU",
                "id": "4gzpq5DPGxSnKTe4SA8HAU",
                "images": [
                    {
                        "height": 640,
                        "url": "https://i.scdn.co/image/4ffd6710617d289699cc0df60cf975e316025119",
                        "width": 640
                    },
                    {
                        "height": 320,
                        "url": "https://i.scdn.co/image/6397b6a29c8d9081412e09feb53600f8c9a18313",
                        "width": 320
                    },
                    {
                        "height": 160,
                        "url": "https://i.scdn.co/image/73a21de115738931d6c7760408ed367812b55ccd",
                        "width": 160
                    }
                ],
                "name": "Coldplay",
                "popularity": 89,
                "type": "artist",
                "uri": "spotify:artist:4gzpq5DPGxSnKTe4SA8HAU"
            }
        ],
        "limit": 1,
        "next": "https://api.spotify.com/v1/search?query=coldplay&type=artist&offset=1&limit=1",
        "offset": 0,
        "previous": null,
        "total": 6
    }
}

{
    "external_urls": {
        "spotify": "https://open.spotify.com/artist/4gzpq5DPGxSnKTe4SA8HAU"
    },
    "followers": {
        "href": null,
        "total": 28591222
    },
    "genres": [
        "permanent wave",
        "pop"
    ],
    "href": "https://api.spotify.com/v1/artists/4gzpq5DPGxSnKTe4SA8HAU",
    "id": "4gzpq5DPGxSnKTe4SA8HAU",
    "images": [
        {
            "height": 640,
            "url": "https://i.scdn.co/image/4ffd6710617d289699cc0df60cf975e316025119",
            "width": 640
        },
        {
            "height": 320,
            "url": "https://i.scdn.co/image/6397b6a29c8d9081412e09feb53600f8c9a18313",
            "width": 320
        },
        {
            "height": 160,
            "url": "https://i.scdn.co/image/73a21de115738931d6c7760408ed367812b55ccd",
            "width": 160
        }
    ],
    "name": "Coldplay",
    "popularity": 89,
    "type": "artist",
    "uri": "spotify:artist:4gzpq5DPGxSnKTe4SA8HAU"
}